EESchema Schematic File Version 4
EELAYER 30 0
EELAYER END
$Descr USLetter 8500 11000 portrait
encoding utf-8
Sheet 1 1
Title ""
Date ""
Rev ""
Comp ""
Comment1 ""
Comment2 ""
Comment3 ""
Comment4 ""
$EndDescr
$Comp
L Connector_Generic:Conn_02x03_Odd_Even J4
U 1 1 5FBB4DFC
P 6850 1200
F 0 "J4" H 6900 1517 50  0000 C CNN
F 1 "Conn_02x03_Odd_Even" H 6900 1426 50  0000 C CNN
F 2 "Connector_PinHeader_2.54mm:PinHeader_2x03_P2.54mm_Vertical" H 6850 1200 50  0001 C CNN
F 3 "~" H 6850 1200 50  0001 C CNN
	1    6850 1200
	1    0    0    -1  
$EndComp
$Comp
L power:GND #PWR07
U 1 1 5FBB6430
P 2100 4500
F 0 "#PWR07" H 2100 4250 50  0001 C CNN
F 1 "GND" H 2105 4327 50  0000 C CNN
F 2 "" H 2100 4500 50  0001 C CNN
F 3 "" H 2100 4500 50  0001 C CNN
	1    2100 4500
	1    0    0    -1  
$EndComp
Wire Wire Line
	2100 4500 2100 4200
$Comp
L Connector:Barrel_Jack J2
U 1 1 5FBB6AB5
P 4950 4150
F 0 "J2" H 5007 4475 50  0000 C CNN
F 1 "Barrel_Jack" H 5007 4384 50  0000 C CNN
F 2 "Connector_BarrelJack:BarrelJack_Wuerth_6941xx301002" H 5000 4110 50  0001 C CNN
F 3 "~" H 5000 4110 50  0001 C CNN
	1    4950 4150
	1    0    0    -1  
$EndComp
$Comp
L Connector_Generic:Conn_01x02 J3
U 1 1 5FBB705C
P 5050 4600
F 0 "J3" H 4968 4817 50  0000 C CNN
F 1 "Conn_01x02" H 4968 4726 50  0000 C CNN
F 2 "Connector_JST:JST_PH_S2B-PH-K_1x02_P2.00mm_Horizontal" H 5050 4600 50  0001 C CNN
F 3 "~" H 5050 4600 50  0001 C CNN
	1    5050 4600
	-1   0    0    -1  
$EndComp
$Comp
L power:GND #PWR011
U 1 1 5FBB7FD7
P 5500 4850
F 0 "#PWR011" H 5500 4600 50  0001 C CNN
F 1 "GND" H 5505 4677 50  0000 C CNN
F 2 "" H 5500 4850 50  0001 C CNN
F 3 "" H 5500 4850 50  0001 C CNN
	1    5500 4850
	1    0    0    -1  
$EndComp
Wire Wire Line
	5250 4700 5500 4700
Wire Wire Line
	5500 4700 5500 4850
Wire Wire Line
	5250 4250 5500 4250
Wire Wire Line
	5500 4250 5500 4700
Connection ~ 5500 4700
Text Notes 4500 3700 0    79   ~ 0
Power
Text Notes 6100 750  0    79   ~ 0
ICSP
$Comp
L Device:Thermistor_NTC TH2
U 1 1 5FBB8CB6
P 6850 6100
F 0 "TH2" H 6948 6146 50  0000 L CNN
F 1 "Thermistor_NTC" H 6948 6055 50  0000 L CNN
F 2 "Resistor_SMD:R_1206_3216Metric_Pad1.30x1.75mm_HandSolder" H 6850 6150 50  0001 C CNN
F 3 "~" H 6850 6150 50  0001 C CNN
	1    6850 6100
	1    0    0    -1  
$EndComp
$Comp
L Device:R R5
U 1 1 5FBB988B
P 6850 6500
F 0 "R5" H 6920 6546 50  0000 L CNN
F 1 "10K" H 6920 6455 50  0000 L CNN
F 2 "Resistor_SMD:R_1206_3216Metric_Pad1.30x1.75mm_HandSolder" V 6780 6500 50  0001 C CNN
F 3 "~" H 6850 6500 50  0001 C CNN
	1    6850 6500
	1    0    0    -1  
$EndComp
Text Notes 6200 8200 0    50   ~ 0
HEAT COIL:\n8.5m\n0.33mm trace
Wire Wire Line
	5450 8500 5450 7800
Wire Wire Line
	5450 7800 6100 7800
Wire Wire Line
	6100 7800 6100 8350
Wire Wire Line
	6100 8350 5550 8350
Wire Wire Line
	5550 8350 5550 7900
Wire Wire Line
	5550 7900 6000 7900
Wire Wire Line
	6000 7900 6000 8250
Wire Wire Line
	6000 8250 5650 8250
Wire Wire Line
	5650 8250 5650 8000
Wire Wire Line
	5650 8000 5900 8000
Wire Wire Line
	5900 8000 5900 8100
Wire Wire Line
	5900 8100 5700 8100
Wire Wire Line
	5700 8100 5700 8150
Wire Wire Line
	5700 8150 5950 8150
Wire Wire Line
	5950 8150 5950 7950
Wire Wire Line
	5950 7950 5600 7950
Wire Wire Line
	5600 7950 5600 8300
Wire Wire Line
	5600 8300 6050 8300
Wire Wire Line
	6050 8300 6050 7850
Wire Wire Line
	6050 7850 5500 7850
Wire Wire Line
	5500 7850 5500 8400
Wire Wire Line
	5500 8400 6150 8400
$Comp
L power:+9V #PWR012
U 1 1 5FBC0CD6
P 5750 3900
F 0 "#PWR012" H 5750 3750 50  0001 C CNN
F 1 "+9V" H 5765 4073 50  0000 C CNN
F 2 "" H 5750 3900 50  0001 C CNN
F 3 "" H 5750 3900 50  0001 C CNN
	1    5750 3900
	1    0    0    -1  
$EndComp
Wire Wire Line
	5250 4600 5750 4600
Wire Wire Line
	5750 4600 5750 4050
Wire Wire Line
	5250 4050 5750 4050
Connection ~ 5750 4050
Wire Wire Line
	5750 4050 5750 3900
$Comp
L Device:CP C4
U 1 1 5FBC21D8
P 5950 4300
F 0 "C4" H 6068 4346 50  0000 L CNN
F 1 "10uF" H 6068 4255 50  0000 L CNN
F 2 "Capacitor_SMD:CP_Elec_4x4.5" H 5988 4150 50  0001 C CNN
F 3 "~" H 5950 4300 50  0001 C CNN
	1    5950 4300
	1    0    0    -1  
$EndComp
Wire Wire Line
	5500 4700 5950 4700
Wire Wire Line
	5950 4700 5950 4450
Wire Wire Line
	5750 4050 5950 4050
Wire Wire Line
	5950 4050 5950 4150
$Comp
L power:+9V #PWR015
U 1 1 5FBC510B
P 6150 7250
F 0 "#PWR015" H 6150 7100 50  0001 C CNN
F 1 "+9V" H 6165 7423 50  0000 C CNN
F 2 "" H 6150 7250 50  0001 C CNN
F 3 "" H 6150 7250 50  0001 C CNN
	1    6150 7250
	1    0    0    -1  
$EndComp
$Comp
L power:GND #PWR013
U 1 1 5FBC53FC
P 5450 9000
F 0 "#PWR013" H 5450 8750 50  0001 C CNN
F 1 "GND" H 5455 8827 50  0000 C CNN
F 2 "" H 5450 9000 50  0001 C CNN
F 3 "" H 5450 9000 50  0001 C CNN
	1    5450 9000
	1    0    0    -1  
$EndComp
Wire Wire Line
	5450 8900 5450 9000
$Comp
L Device:R R4
U 1 1 5FBC5FA5
P 4950 8800
F 0 "R4" V 4743 8800 50  0000 C CNN
F 1 "1K" V 4834 8800 50  0000 C CNN
F 2 "Resistor_SMD:R_1206_3216Metric_Pad1.30x1.75mm_HandSolder" V 4880 8800 50  0001 C CNN
F 3 "~" H 4950 8800 50  0001 C CNN
	1    4950 8800
	0    1    1    0   
$EndComp
Text Label 4200 8800 0    50   ~ 0
HeatPower
Wire Wire Line
	4200 8800 4800 8800
Wire Wire Line
	5100 8800 5150 8800
Wire Wire Line
	5900 6300 6850 6300
Wire Wire Line
	6850 6300 6850 6350
Wire Wire Line
	6850 6300 6850 6250
Connection ~ 6850 6300
$Comp
L power:+3V3 #PWR016
U 1 1 5FBCDC01
P 6850 5850
F 0 "#PWR016" H 6850 5700 50  0001 C CNN
F 1 "+3V3" H 6865 6023 50  0000 C CNN
F 2 "" H 6850 5850 50  0001 C CNN
F 3 "" H 6850 5850 50  0001 C CNN
	1    6850 5850
	1    0    0    -1  
$EndComp
Wire Wire Line
	6850 5850 6850 5950
$Comp
L power:GND #PWR017
U 1 1 5FBCEDAE
P 6850 6750
F 0 "#PWR017" H 6850 6500 50  0001 C CNN
F 1 "GND" H 6855 6577 50  0000 C CNN
F 2 "" H 6850 6750 50  0001 C CNN
F 3 "" H 6850 6750 50  0001 C CNN
	1    6850 6750
	1    0    0    -1  
$EndComp
Wire Wire Line
	6850 6750 6850 6650
$Comp
L Device:Thermistor_NTC TH1
U 1 1 5FBD21D9
P 5050 6100
F 0 "TH1" H 5148 6146 50  0000 L CNN
F 1 "Thermistor_NTC" H 5148 6055 50  0000 L CNN
F 2 "Resistor_SMD:R_1206_3216Metric_Pad1.30x1.75mm_HandSolder" H 5050 6150 50  0001 C CNN
F 3 "~" H 5050 6150 50  0001 C CNN
	1    5050 6100
	1    0    0    -1  
$EndComp
$Comp
L Device:R R3
U 1 1 5FBD21DF
P 5050 6500
F 0 "R3" H 5120 6546 50  0000 L CNN
F 1 "10K" H 5120 6455 50  0000 L CNN
F 2 "Resistor_SMD:R_1206_3216Metric_Pad1.30x1.75mm_HandSolder" V 4980 6500 50  0001 C CNN
F 3 "~" H 5050 6500 50  0001 C CNN
	1    5050 6500
	1    0    0    -1  
$EndComp
Wire Wire Line
	4100 6300 5050 6300
Wire Wire Line
	5050 6300 5050 6350
Wire Wire Line
	5050 6300 5050 6250
Connection ~ 5050 6300
$Comp
L power:+3V3 #PWR09
U 1 1 5FBD21EA
P 5050 5850
F 0 "#PWR09" H 5050 5700 50  0001 C CNN
F 1 "+3V3" H 5065 6023 50  0000 C CNN
F 2 "" H 5050 5850 50  0001 C CNN
F 3 "" H 5050 5850 50  0001 C CNN
	1    5050 5850
	1    0    0    -1  
$EndComp
Wire Wire Line
	5050 5850 5050 5950
$Comp
L power:GND #PWR010
U 1 1 5FBD21F1
P 5050 6750
F 0 "#PWR010" H 5050 6500 50  0001 C CNN
F 1 "GND" H 5055 6577 50  0000 C CNN
F 2 "" H 5050 6750 50  0001 C CNN
F 3 "" H 5050 6750 50  0001 C CNN
	1    5050 6750
	1    0    0    -1  
$EndComp
Wire Wire Line
	5050 6750 5050 6650
$Comp
L Regulator_Linear:AP1117-33 U2
U 1 1 5FBD938C
P 7050 4300
F 0 "U2" H 7050 4542 50  0000 C CNN
F 1 "AP1117-33" H 7050 4451 50  0000 C CNN
F 2 "Package_TO_SOT_SMD:SOT-223-3_TabPin2" H 7050 4500 50  0001 C CNN
F 3 "http://www.diodes.com/datasheets/AP1117.pdf" H 7150 4050 50  0001 C CNN
	1    7050 4300
	1    0    0    -1  
$EndComp
$Comp
L power:+9V #PWR014
U 1 1 5FBDA9AB
P 6550 4150
F 0 "#PWR014" H 6550 4000 50  0001 C CNN
F 1 "+9V" H 6565 4323 50  0000 C CNN
F 2 "" H 6550 4150 50  0001 C CNN
F 3 "" H 6550 4150 50  0001 C CNN
	1    6550 4150
	1    0    0    -1  
$EndComp
Wire Wire Line
	6550 4150 6550 4300
Wire Wire Line
	6550 4300 6750 4300
$Comp
L power:+3V3 #PWR023
U 1 1 5FBDC218
P 7600 4150
F 0 "#PWR023" H 7600 4000 50  0001 C CNN
F 1 "+3V3" H 7615 4323 50  0000 C CNN
F 2 "" H 7600 4150 50  0001 C CNN
F 3 "" H 7600 4150 50  0001 C CNN
	1    7600 4150
	1    0    0    -1  
$EndComp
Wire Wire Line
	7350 4300 7600 4300
Wire Wire Line
	7600 4300 7600 4150
$Comp
L power:GND #PWR020
U 1 1 5FBDD8D3
P 7050 4800
F 0 "#PWR020" H 7050 4550 50  0001 C CNN
F 1 "GND" H 7055 4627 50  0000 C CNN
F 2 "" H 7050 4800 50  0001 C CNN
F 3 "" H 7050 4800 50  0001 C CNN
	1    7050 4800
	1    0    0    -1  
$EndComp
Wire Wire Line
	7050 4700 7050 4600
$Comp
L Device:C C6
U 1 1 5FBDEFD3
P 7600 4500
F 0 "C6" H 7715 4546 50  0000 L CNN
F 1 "1u" H 7715 4455 50  0000 L CNN
F 2 "Capacitor_SMD:C_1206_3216Metric_Pad1.33x1.80mm_HandSolder" H 7638 4350 50  0001 C CNN
F 3 "~" H 7600 4500 50  0001 C CNN
	1    7600 4500
	1    0    0    -1  
$EndComp
Wire Wire Line
	6550 4650 6550 4700
Wire Wire Line
	6550 4700 7050 4700
Wire Wire Line
	7600 4650 7600 4700
Wire Wire Line
	7600 4700 7050 4700
Connection ~ 7050 4700
Wire Wire Line
	7050 4800 7050 4700
Wire Wire Line
	6550 4350 6550 4300
Connection ~ 6550 4300
Wire Wire Line
	7600 4350 7600 4300
Connection ~ 7600 4300
Text Label 4100 6300 0    49   ~ 0
TEMP01
Text Label 5900 6300 0    49   ~ 0
TEMP02
Text Label 2850 3500 0    50   ~ 0
HeatPower
Wire Wire Line
	2700 3500 2850 3500
Text Notes 3250 3500 0    50   ~ 0
IDE: D3 (PWM)
Text Label 3000 2400 0    49   ~ 0
TEMP01
Text Label 3000 2500 0    49   ~ 0
TEMP02
Wire Wire Line
	2700 2500 3000 2500
Wire Wire Line
	2700 2400 3000 2400
$Comp
L Connector_Generic:Conn_01x05 J5
U 1 1 5FC3610B
P 7400 2600
F 0 "J5" H 7480 2642 50  0000 L CNN
F 1 "Conn_01x05" H 7480 2551 50  0000 L CNN
F 2 "Connector_PinHeader_2.54mm:PinHeader_1x05_P2.54mm_Vertical" H 7400 2600 50  0001 C CNN
F 3 "~" H 7400 2600 50  0001 C CNN
	1    7400 2600
	1    0    0    -1  
$EndComp
Text Notes 6100 2000 0    79   ~ 0
UART Programming
$Comp
L Device:Resonator Y1
U 1 1 5FC376A4
P 3550 2150
F 0 "Y1" V 3596 2261 50  0000 L CNN
F 1 "8MHz" V 3505 2261 50  0000 L CNN
F 2 "Crystal:Resonator_SMD_muRata_CSTxExxV-3Pin_3.0x1.1mm_HandSoldering" H 3525 2150 50  0001 C CNN
F 3 "~" H 3525 2150 50  0001 C CNN
	1    3550 2150
	0    -1   -1   0   
$EndComp
$Comp
L Device:R R2
U 1 1 5FC3BCC0
P 4300 2150
F 0 "R2" H 4230 2104 50  0000 R CNN
F 1 "1M" H 4230 2195 50  0000 R CNN
F 2 "Resistor_SMD:R_1206_3216Metric_Pad1.30x1.75mm_HandSolder" V 4230 2150 50  0001 C CNN
F 3 "~" H 4300 2150 50  0001 C CNN
	1    4300 2150
	-1   0    0    1   
$EndComp
Wire Wire Line
	3550 2000 3550 1900
Wire Wire Line
	3550 1900 4300 1900
Wire Wire Line
	4300 1900 4300 2000
Wire Wire Line
	3550 2300 3550 2400
Wire Wire Line
	3550 2400 4300 2400
Wire Wire Line
	4300 2400 4300 2300
$Comp
L power:GND #PWR08
U 1 1 5FC3FB8A
P 3850 2150
F 0 "#PWR08" H 3850 1900 50  0001 C CNN
F 1 "GND" V 3855 2022 50  0000 R CNN
F 2 "" H 3850 2150 50  0001 C CNN
F 3 "" H 3850 2150 50  0001 C CNN
	1    3850 2150
	0    -1   -1   0   
$EndComp
Wire Wire Line
	3750 2150 3850 2150
$Comp
L Device:Ferrite_Bead FB1
U 1 1 5FC41C73
P 2300 1000
F 0 "FB1" H 2437 1046 50  0000 L CNN
F 1 "MH2029-300Y" H 2437 955 50  0000 L CNN
F 2 "Inductor_SMD:L_1206_3216Metric_Pad1.22x1.90mm_HandSolder" V 2230 1000 50  0001 C CNN
F 3 "~" H 2300 1000 50  0001 C CNN
	1    2300 1000
	1    0    0    -1  
$EndComp
$Comp
L power:+3V3 #PWR06
U 1 1 5FC42C50
P 2100 750
F 0 "#PWR06" H 2100 600 50  0001 C CNN
F 1 "+3V3" H 2115 923 50  0000 C CNN
F 2 "" H 2100 750 50  0001 C CNN
F 3 "" H 2100 750 50  0001 C CNN
	1    2100 750 
	1    0    0    -1  
$EndComp
Wire Wire Line
	2100 750  2100 850 
Wire Wire Line
	2200 1200 2200 1150
Wire Wire Line
	2200 1150 2300 1150
Wire Wire Line
	2300 850  2100 850 
Connection ~ 2100 850 
Wire Wire Line
	2100 850  2100 1200
$Comp
L Device:C C3
U 1 1 5FC4A556
P 3450 3000
F 0 "C3" V 3198 3000 50  0000 C CNN
F 1 "100n" V 3289 3000 50  0000 C CNN
F 2 "Capacitor_SMD:C_0805_2012Metric_Pad1.18x1.45mm_HandSolder" H 3488 2850 50  0001 C CNN
F 3 "~" H 3450 3000 50  0001 C CNN
	1    3450 3000
	0    1    1    0   
$EndComp
$Comp
L Device:C C1
U 1 1 5FC4CD9B
P 850 1750
F 0 "C1" H 965 1796 50  0000 L CNN
F 1 "0.1uF" H 965 1705 50  0000 L CNN
F 2 "Capacitor_SMD:C_1206_3216Metric_Pad1.33x1.80mm_HandSolder" H 888 1600 50  0001 C CNN
F 3 "~" H 850 1750 50  0001 C CNN
	1    850  1750
	1    0    0    -1  
$EndComp
Wire Wire Line
	850  1600 850  1500
Wire Wire Line
	850  1500 1500 1500
$Comp
L power:GND #PWR01
U 1 1 5FC4F95E
P 850 2000
F 0 "#PWR01" H 850 1750 50  0001 C CNN
F 1 "GND" H 855 1827 50  0000 C CNN
F 2 "" H 850 2000 50  0001 C CNN
F 3 "" H 850 2000 50  0001 C CNN
	1    850  2000
	1    0    0    -1  
$EndComp
Wire Wire Line
	850  2000 850  1900
Wire Wire Line
	2700 2100 3100 2100
Wire Wire Line
	3100 2100 3100 1900
Wire Wire Line
	3100 1900 3550 1900
Connection ~ 3550 1900
Wire Wire Line
	2700 2200 3100 2200
Wire Wire Line
	3100 2200 3100 2300
Wire Wire Line
	3100 2300 3450 2300
Wire Wire Line
	3450 2300 3450 2400
Wire Wire Line
	3450 2400 3550 2400
Connection ~ 3550 2400
Text Label 6100 1100 0    50   ~ 0
ISP_MISO
Text Label 6100 1200 0    50   ~ 0
ISP_CLK
Text Label 6100 1300 0    50   ~ 0
ISP_RESET
Text Label 7400 1200 0    50   ~ 0
ISP_MOSI
$Comp
L power:GND #PWR022
U 1 1 5FC5E1E7
P 7400 1350
F 0 "#PWR022" H 7400 1100 50  0001 C CNN
F 1 "GND" H 7405 1177 50  0000 C CNN
F 2 "" H 7400 1350 50  0001 C CNN
F 3 "" H 7400 1350 50  0001 C CNN
	1    7400 1350
	1    0    0    -1  
$EndComp
$Comp
L power:+3V3 #PWR021
U 1 1 5FC5E6F6
P 7400 1050
F 0 "#PWR021" H 7400 900 50  0001 C CNN
F 1 "+3V3" H 7415 1223 50  0000 C CNN
F 2 "" H 7400 1050 50  0001 C CNN
F 3 "" H 7400 1050 50  0001 C CNN
	1    7400 1050
	1    0    0    -1  
$EndComp
Wire Wire Line
	7150 1300 7400 1300
Wire Wire Line
	7400 1300 7400 1350
Wire Wire Line
	7150 1200 7400 1200
Wire Wire Line
	7150 1100 7400 1100
Wire Wire Line
	7400 1100 7400 1050
Wire Wire Line
	6100 1100 6650 1100
Wire Wire Line
	6100 1200 6650 1200
Wire Wire Line
	6100 1300 6650 1300
Text Label 2600 5850 0    50   ~ 0
ISP_RESET
Wire Wire Line
	3600 3000 3700 3000
$Comp
L power:+3V3 #PWR019
U 1 1 5FC76013
P 7000 2300
F 0 "#PWR019" H 7000 2150 50  0001 C CNN
F 1 "+3V3" H 7015 2473 50  0000 C CNN
F 2 "" H 7000 2300 50  0001 C CNN
F 3 "" H 7000 2300 50  0001 C CNN
	1    7000 2300
	1    0    0    -1  
$EndComp
Wire Wire Line
	7000 2300 7000 2400
Wire Wire Line
	7000 2400 7200 2400
$Comp
L power:GND #PWR018
U 1 1 5FC7D2F1
P 6900 2500
F 0 "#PWR018" H 6900 2250 50  0001 C CNN
F 1 "GND" V 6905 2372 50  0000 R CNN
F 2 "" H 6900 2500 50  0001 C CNN
F 3 "" H 6900 2500 50  0001 C CNN
	1    6900 2500
	0    1    1    0   
$EndComp
Wire Wire Line
	6900 2500 7200 2500
Text Label 6200 2600 0    50   ~ 0
UART_DTR
Wire Wire Line
	6200 2600 7200 2600
Text Label 6200 2700 0    50   ~ 0
EXT_TX
Text Label 6200 2800 0    50   ~ 0
EXT_RX
Wire Wire Line
	6200 2800 7200 2800
Wire Wire Line
	6200 2700 7200 2700
Text Label 3200 1650 0    50   ~ 0
ISP_MISO
Wire Wire Line
	2700 1900 3000 1900
Wire Wire Line
	3000 1900 3000 1650
Wire Wire Line
	3000 1650 3200 1650
Text Label 3200 1550 0    50   ~ 0
ISP_MOSI
Wire Wire Line
	2700 1800 2950 1800
Wire Wire Line
	2950 1800 2950 1550
Wire Wire Line
	2950 1550 3200 1550
Text Label 3200 1750 0    50   ~ 0
ISP_CLK
Wire Wire Line
	2700 2000 3050 2000
Wire Wire Line
	3050 2000 3050 1750
Wire Wire Line
	3050 1750 3200 1750
Text Label 2600 5950 0    50   ~ 0
UART_DTR
Text Label 3700 3000 0    50   ~ 0
EXT_RESET
Text Label 1500 5850 0    50   ~ 0
EXT_RESET
$Comp
L Device:D D1
U 1 1 5FCADECA
P 2050 5700
F 0 "D1" V 2004 5780 50  0000 L CNN
F 1 "D" V 2095 5780 50  0000 L CNN
F 2 "Diode_SMD:D_SOD-323_HandSoldering" H 2050 5700 50  0001 C CNN
F 3 "~" H 2050 5700 50  0001 C CNN
	1    2050 5700
	0    1    1    0   
$EndComp
$Comp
L Device:R R1
U 1 1 5FCAE97C
P 2300 5700
F 0 "R1" H 2370 5746 50  0000 L CNN
F 1 "10K" H 2370 5655 50  0000 L CNN
F 2 "Resistor_SMD:R_1206_3216Metric_Pad1.30x1.75mm_HandSolder" V 2230 5700 50  0001 C CNN
F 3 "~" H 2300 5700 50  0001 C CNN
	1    2300 5700
	1    0    0    -1  
$EndComp
$Comp
L Device:C C2
U 1 1 5FCAEF36
P 2050 6100
F 0 "C2" H 2165 6146 50  0000 L CNN
F 1 "22p" H 2165 6055 50  0000 L CNN
F 2 "Capacitor_SMD:C_0805_2012Metric_Pad1.18x1.45mm_HandSolder" H 2088 5950 50  0001 C CNN
F 3 "~" H 2050 6100 50  0001 C CNN
	1    2050 6100
	1    0    0    -1  
$EndComp
Wire Wire Line
	1500 5850 2050 5850
Connection ~ 2050 5850
Wire Wire Line
	2050 5850 2300 5850
Connection ~ 2300 5850
Wire Wire Line
	2300 5850 2450 5850
Wire Wire Line
	2050 5950 2050 5850
Wire Wire Line
	2450 5950 2450 5850
Wire Wire Line
	2450 5950 2600 5950
Connection ~ 2450 5850
Wire Wire Line
	2450 5850 2600 5850
$Comp
L power:+3V3 #PWR04
U 1 1 5FCC1193
P 2050 5400
F 0 "#PWR04" H 2050 5250 50  0001 C CNN
F 1 "+3V3" H 2065 5573 50  0000 C CNN
F 2 "" H 2050 5400 50  0001 C CNN
F 3 "" H 2050 5400 50  0001 C CNN
	1    2050 5400
	1    0    0    -1  
$EndComp
Wire Wire Line
	2050 5400 2050 5450
Wire Wire Line
	2300 5550 2300 5450
Wire Wire Line
	2300 5450 2050 5450
Connection ~ 2050 5450
Wire Wire Line
	2050 5450 2050 5550
$Comp
L power:GND #PWR05
U 1 1 5FCCB10D
P 2050 6300
F 0 "#PWR05" H 2050 6050 50  0001 C CNN
F 1 "GND" H 2055 6127 50  0000 C CNN
F 2 "" H 2050 6300 50  0001 C CNN
F 3 "" H 2050 6300 50  0001 C CNN
	1    2050 6300
	1    0    0    -1  
$EndComp
Wire Wire Line
	2050 6300 2050 6250
$Comp
L Connector_Generic:Conn_01x04 J1
U 1 1 5FCE1FF1
P 2350 7000
F 0 "J1" H 2430 6992 50  0000 L CNN
F 1 "Conn_01x04" H 2430 6901 50  0000 L CNN
F 2 "Connector_PinHeader_2.54mm:PinHeader_1x04_P2.54mm_Vertical" H 2350 7000 50  0001 C CNN
F 3 "~" H 2350 7000 50  0001 C CNN
	1    2350 7000
	1    0    0    -1  
$EndComp
$Comp
L power:GND #PWR02
U 1 1 5FCE27AF
P 2000 6900
F 0 "#PWR02" H 2000 6650 50  0001 C CNN
F 1 "GND" V 2005 6772 50  0000 R CNN
F 2 "" H 2000 6900 50  0001 C CNN
F 3 "" H 2000 6900 50  0001 C CNN
	1    2000 6900
	0    1    1    0   
$EndComp
$Comp
L power:+3V3 #PWR03
U 1 1 5FCE2D3E
P 2000 7000
F 0 "#PWR03" H 2000 6850 50  0001 C CNN
F 1 "+3V3" V 2015 7128 50  0000 L CNN
F 2 "" H 2000 7000 50  0001 C CNN
F 3 "" H 2000 7000 50  0001 C CNN
	1    2000 7000
	0    -1   -1   0   
$EndComp
Text Label 1900 7100 0    50   ~ 0
SDA
Text Label 1900 7200 0    50   ~ 0
SCL
Wire Wire Line
	2000 7000 2150 7000
Wire Wire Line
	2000 6900 2150 6900
Text Notes 1650 6750 0    50   ~ 0
i2c Expansion Header
Wire Notes Line
	7900 9100 7900 5300
Wire Notes Line
	7900 5300 3800 5300
Wire Notes Line
	3800 5300 3800 9100
$Comp
L Device:C C5
U 1 1 5FD3004F
P 6550 4500
F 0 "C5" H 6665 4546 50  0000 L CNN
F 1 "1u" H 6665 4455 50  0000 L CNN
F 2 "Capacitor_SMD:C_1206_3216Metric_Pad1.33x1.80mm_HandSolder" H 6588 4350 50  0001 C CNN
F 3 "~" H 6550 4500 50  0001 C CNN
	1    6550 4500
	1    0    0    -1  
$EndComp
Wire Notes Line
	4350 3500 7900 3500
Wire Notes Line
	7900 3500 7900 5100
Wire Notes Line
	7900 5100 4350 5100
Wire Notes Line
	4350 5100 4350 3500
$Comp
L Device:LED D2
U 1 1 5FD80D90
P 1350 8750
F 0 "D2" V 1389 8632 50  0000 R CNN
F 1 "LED" V 1298 8632 50  0000 R CNN
F 2 "LED_SMD:LED_1206_3216Metric_Pad1.42x1.75mm_HandSolder" H 1350 8750 50  0001 C CNN
F 3 "~" H 1350 8750 50  0001 C CNN
	1    1350 8750
	0    -1   -1   0   
$EndComp
$Comp
L Device:R R6
U 1 1 5FD9DD80
P 1350 8350
F 0 "R6" H 1280 8304 50  0000 R CNN
F 1 "150" H 1280 8395 50  0000 R CNN
F 2 "Resistor_SMD:R_1206_3216Metric_Pad1.30x1.75mm_HandSolder" V 1280 8350 50  0001 C CNN
F 3 "~" H 1350 8350 50  0001 C CNN
	1    1350 8350
	-1   0    0    1   
$EndComp
$Comp
L power:+3V3 #PWR024
U 1 1 5FDD52F4
P 1350 8150
F 0 "#PWR024" H 1350 8000 50  0001 C CNN
F 1 "+3V3" H 1365 8323 50  0000 C CNN
F 2 "" H 1350 8150 50  0001 C CNN
F 3 "" H 1350 8150 50  0001 C CNN
	1    1350 8150
	1    0    0    -1  
$EndComp
$Comp
L power:GND #PWR025
U 1 1 5FDD5A36
P 1350 8950
F 0 "#PWR025" H 1350 8700 50  0001 C CNN
F 1 "GND" H 1355 8777 50  0000 C CNN
F 2 "" H 1350 8950 50  0001 C CNN
F 3 "" H 1350 8950 50  0001 C CNN
	1    1350 8950
	1    0    0    -1  
$EndComp
Wire Wire Line
	1350 8150 1350 8200
Wire Wire Line
	1350 8500 1350 8600
Wire Wire Line
	1350 8900 1350 8950
$Comp
L Device:LED D3
U 1 1 5FDEC026
P 1950 8750
F 0 "D3" V 1989 8632 50  0000 R CNN
F 1 "LED" V 1898 8632 50  0000 R CNN
F 2 "LED_SMD:LED_1206_3216Metric_Pad1.42x1.75mm_HandSolder" H 1950 8750 50  0001 C CNN
F 3 "~" H 1950 8750 50  0001 C CNN
	1    1950 8750
	0    -1   -1   0   
$EndComp
$Comp
L Device:R R7
U 1 1 5FDEC4BA
P 1950 8350
F 0 "R7" H 1880 8304 50  0000 R CNN
F 1 "150" H 1880 8395 50  0000 R CNN
F 2 "Resistor_SMD:R_1206_3216Metric_Pad1.30x1.75mm_HandSolder" V 1880 8350 50  0001 C CNN
F 3 "~" H 1950 8350 50  0001 C CNN
	1    1950 8350
	-1   0    0    1   
$EndComp
$Comp
L power:GND #PWR026
U 1 1 5FDEC4CE
P 1950 8950
F 0 "#PWR026" H 1950 8700 50  0001 C CNN
F 1 "GND" H 1955 8777 50  0000 C CNN
F 2 "" H 1950 8950 50  0001 C CNN
F 3 "" H 1950 8950 50  0001 C CNN
	1    1950 8950
	1    0    0    -1  
$EndComp
Wire Wire Line
	1950 8150 1950 8200
Wire Wire Line
	1950 8500 1950 8600
Wire Wire Line
	1950 8900 1950 8950
Text Label 1950 8150 0    50   ~ 0
HeatPower
Text Label 2850 3700 0    50   ~ 0
ErrorLED
Wire Wire Line
	2700 3700 2850 3700
Text Notes 1200 7850 0    79   ~ 0
Indicator LED
Wire Notes Line
	950  7650 950  9350
Wire Notes Line
	3450 9350 3450 7650
Wire Notes Line
	3450 7650 950  7650
Wire Notes Line
	950  9350 3450 9350
Text Label 2550 8150 0    50   ~ 0
ErrorLED
Wire Wire Line
	2550 8900 2550 8950
Wire Wire Line
	2550 8500 2550 8600
Wire Wire Line
	2550 8150 2550 8200
$Comp
L power:GND #PWR027
U 1 1 5FDFC8ED
P 2550 8950
F 0 "#PWR027" H 2550 8700 50  0001 C CNN
F 1 "GND" H 2555 8777 50  0000 C CNN
F 2 "" H 2550 8950 50  0001 C CNN
F 3 "" H 2550 8950 50  0001 C CNN
	1    2550 8950
	1    0    0    -1  
$EndComp
$Comp
L Device:R R8
U 1 1 5FDFC8D9
P 2550 8350
F 0 "R8" H 2480 8304 50  0000 R CNN
F 1 "150" H 2480 8395 50  0000 R CNN
F 2 "Resistor_SMD:R_1206_3216Metric_Pad1.30x1.75mm_HandSolder" V 2480 8350 50  0001 C CNN
F 3 "~" H 2550 8350 50  0001 C CNN
	1    2550 8350
	-1   0    0    1   
$EndComp
$Comp
L Device:LED D4
U 1 1 5FDFC3FF
P 2550 8750
F 0 "D4" V 2589 8632 50  0000 R CNN
F 1 "LED" V 2498 8632 50  0000 R CNN
F 2 "LED_SMD:LED_1206_3216Metric_Pad1.42x1.75mm_HandSolder" H 2550 8750 50  0001 C CNN
F 3 "~" H 2550 8750 50  0001 C CNN
	1    2550 8750
	0    -1   -1   0   
$EndComp
$Comp
L Mechanical:MountingHole_Pad H1
U 1 1 5FEBFF2F
P 5000 900
F 0 "H1" H 5100 949 50  0000 L CNN
F 1 "MountingHole_Pad" H 5100 858 50  0000 L CNN
F 2 "MountingHole:MountingHole_3.2mm_M3_DIN965_Pad" H 5000 900 50  0001 C CNN
F 3 "~" H 5000 900 50  0001 C CNN
	1    5000 900 
	1    0    0    -1  
$EndComp
$Comp
L Mechanical:MountingHole_Pad H2
U 1 1 5FEC0ACE
P 5000 1250
F 0 "H2" H 5100 1299 50  0000 L CNN
F 1 "MountingHole_Pad" H 5100 1208 50  0000 L CNN
F 2 "MountingHole:MountingHole_3.2mm_M3_DIN965_Pad" H 5000 1250 50  0001 C CNN
F 3 "~" H 5000 1250 50  0001 C CNN
	1    5000 1250
	1    0    0    -1  
$EndComp
$Comp
L Mechanical:MountingHole_Pad H3
U 1 1 5FEC0DEE
P 5000 1600
F 0 "H3" H 5100 1649 50  0000 L CNN
F 1 "MountingHole_Pad" H 5100 1558 50  0000 L CNN
F 2 "MountingHole:MountingHole_3.2mm_M3_DIN965_Pad" H 5000 1600 50  0001 C CNN
F 3 "~" H 5000 1600 50  0001 C CNN
	1    5000 1600
	1    0    0    -1  
$EndComp
$Comp
L Mechanical:MountingHole_Pad H4
U 1 1 5FEC1136
P 5000 1950
F 0 "H4" H 5100 1999 50  0000 L CNN
F 1 "MountingHole_Pad" H 5100 1908 50  0000 L CNN
F 2 "MountingHole:MountingHole_3.2mm_M3_DIN965_Pad" H 5000 1950 50  0001 C CNN
F 3 "~" H 5000 1950 50  0001 C CNN
	1    5000 1950
	1    0    0    -1  
$EndComp
$Comp
L power:GND #PWR028
U 1 1 5FEC1571
P 4750 2250
F 0 "#PWR028" H 4750 2000 50  0001 C CNN
F 1 "GND" H 4755 2077 50  0000 C CNN
F 2 "" H 4750 2250 50  0001 C CNN
F 3 "" H 4750 2250 50  0001 C CNN
	1    4750 2250
	1    0    0    -1  
$EndComp
Wire Wire Line
	5000 2050 4750 2050
Wire Wire Line
	4750 2050 4750 2250
Wire Wire Line
	5000 1700 4750 1700
Wire Wire Line
	4750 1700 4750 2050
Connection ~ 4750 2050
Wire Wire Line
	5000 1350 4750 1350
Wire Wire Line
	4750 1350 4750 1700
Connection ~ 4750 1700
Wire Wire Line
	5000 1000 4750 1000
Wire Wire Line
	4750 1000 4750 1350
Connection ~ 4750 1350
Wire Wire Line
	2700 3000 3300 3000
Text Label 2900 2800 0    50   ~ 0
SDA
Text Label 2900 2900 0    50   ~ 0
SCL
Wire Wire Line
	2900 2900 2700 2900
Wire Wire Line
	2700 2800 2900 2800
$Comp
L Device:R R9
U 1 1 5FCAA8DF
P 1150 6900
F 0 "R9" H 1220 6946 50  0000 L CNN
F 1 "1K" H 1220 6855 50  0000 L CNN
F 2 "Resistor_SMD:R_1206_3216Metric_Pad1.30x1.75mm_HandSolder" V 1080 6900 50  0001 C CNN
F 3 "~" H 1150 6900 50  0001 C CNN
	1    1150 6900
	1    0    0    -1  
$EndComp
$Comp
L Device:R R10
U 1 1 5FCB1DFB
P 1450 6900
F 0 "R10" H 1520 6946 50  0000 L CNN
F 1 "1K" H 1520 6855 50  0000 L CNN
F 2 "Resistor_SMD:R_1206_3216Metric_Pad1.30x1.75mm_HandSolder" V 1380 6900 50  0001 C CNN
F 3 "~" H 1450 6900 50  0001 C CNN
	1    1450 6900
	1    0    0    -1  
$EndComp
Wire Wire Line
	1450 7050 1450 7100
Wire Wire Line
	1450 7100 2150 7100
Wire Wire Line
	1150 7200 1150 7050
Wire Wire Line
	1150 7200 2150 7200
$Comp
L power:+3V3 #PWR029
U 1 1 5FCC811C
P 1150 6600
F 0 "#PWR029" H 1150 6450 50  0001 C CNN
F 1 "+3V3" H 1165 6773 50  0000 C CNN
F 2 "" H 1150 6600 50  0001 C CNN
F 3 "" H 1150 6600 50  0001 C CNN
	1    1150 6600
	1    0    0    -1  
$EndComp
Wire Wire Line
	1150 6600 1150 6650
Wire Wire Line
	1450 6750 1450 6650
Wire Wire Line
	1450 6650 1150 6650
Connection ~ 1150 6650
Wire Wire Line
	1150 6650 1150 6750
Text Label 2900 3200 0    50   ~ 0
EXT_RX
Wire Wire Line
	2700 3200 2900 3200
Text Label 2900 3300 0    50   ~ 0
EXT_TX
Wire Wire Line
	2700 3300 2900 3300
$Comp
L dk_Transistors-FETs-MOSFETs-Single:IRLML2402TRPBF Q1
U 1 1 5FD78D64
P 5450 8700
F 0 "Q1" H 5558 8753 60  0000 L CNN
F 1 "IRLML2402TRPBF" H 5558 8647 60  0000 L CNN
F 2 "digikey-footprints:SOT-23-3" H 5650 8900 60  0001 L CNN
F 3 "https://www.infineon.com/dgdl/irlml2402pbf.pdf?fileId=5546d462533600a401535664e5ef25fa" H 5650 9000 60  0001 L CNN
F 4 "IRLML2402PBFCT-ND" H 5650 9100 60  0001 L CNN "Digi-Key_PN"
F 5 "IRLML2402TRPBF" H 5650 9200 60  0001 L CNN "MPN"
F 6 "Discrete Semiconductor Products" H 5650 9300 60  0001 L CNN "Category"
F 7 "Transistors - FETs, MOSFETs - Single" H 5650 9400 60  0001 L CNN "Family"
F 8 "https://www.infineon.com/dgdl/irlml2402pbf.pdf?fileId=5546d462533600a401535664e5ef25fa" H 5650 9500 60  0001 L CNN "DK_Datasheet_Link"
F 9 "/product-detail/en/infineon-technologies/IRLML2402TRPBF/IRLML2402PBFCT-ND/812508" H 5650 9600 60  0001 L CNN "DK_Detail_Page"
F 10 "MOSFET N-CH 20V 1.2A SOT-23" H 5650 9700 60  0001 L CNN "Description"
F 11 "Infineon Technologies" H 5650 9800 60  0001 L CNN "Manufacturer"
F 12 "Active" H 5650 9900 60  0001 L CNN "Status"
	1    5450 8700
	1    0    0    -1  
$EndComp
NoConn ~ 2700 1500
NoConn ~ 2700 1600
NoConn ~ 2700 1700
NoConn ~ 1500 1800
NoConn ~ 1500 1700
NoConn ~ 2700 3900
NoConn ~ 2700 3800
NoConn ~ 2700 3600
NoConn ~ 2700 3400
NoConn ~ 2700 2700
NoConn ~ 2700 2600
$Comp
L StarterHeater-rescue:ATmega328P-AU-MCU_Microchip_ATmega U1
U 1 1 5FBB15AA
P 2100 2700
F 0 "U1" H 2100 1111 50  0000 C CNN
F 1 "ATmega328P-AU" H 2100 1020 50  0000 C CNN
F 2 "Package_QFP:TQFP-32_7x7mm_P0.8mm" H 2100 2700 50  0001 C CIN
F 3 "http://ww1.microchip.com/downloads/en/DeviceDoc/ATmega328_P%20AVR%20MCU%20with%20picoPower%20Technology%20Data%20Sheet%2040001984A.pdf" H 2100 2700 50  0001 C CNN
	1    2100 2700
	1    0    0    -1  
$EndComp
$Comp
L Device:Fuse F1
U 1 1 6022166A
P 6150 7500
F 0 "F1" H 6210 7546 50  0000 L CNN
F 1 "Fuse" H 6210 7455 50  0000 L CNN
F 2 "Fuse:Fuse_BelFuse_0ZRE0005FF_L8.3mm_W3.8mm" V 6080 7500 50  0001 C CNN
F 3 "~" H 6150 7500 50  0001 C CNN
	1    6150 7500
	-1   0    0    1   
$EndComp
Wire Wire Line
	6150 7350 6150 7250
Wire Wire Line
	6150 7650 6150 8400
$EndSCHEMATC
